-- Contents are randomly generated during RTL generation.
WIDTH=2;
DEPTH=256;

ADDRESS_RADIX=HEX;
DATA_RADIX=HEX;

CONTENT BEGIN

00 : 0;
01 : 3;
02 : 3;
03 : 2;
04 : 1;
05 : 0;
06 : 2;
07 : 1;
08 : 2;
09 : 0;
0a : 3;
0b : 1;
0c : 2;
0d : 2;
0e : 0;
0f : 1;
10 : 3;
11 : 0;
12 : 3;
13 : 0;
14 : 1;
15 : 1;
16 : 1;
17 : 1;
18 : 1;
19 : 2;
1a : 1;
1b : 2;
1c : 3;
1d : 3;
1e : 2;
1f : 0;
20 : 1;
21 : 1;
22 : 1;
23 : 2;
24 : 0;
25 : 0;
26 : 1;
27 : 1;
28 : 1;
29 : 2;
2a : 3;
2b : 0;
2c : 0;
2d : 0;
2e : 1;
2f : 0;
30 : 2;
31 : 3;
32 : 2;
33 : 1;
34 : 2;
35 : 1;
36 : 2;
37 : 2;
38 : 2;
39 : 1;
3a : 0;
3b : 1;
3c : 3;
3d : 1;
3e : 0;
3f : 1;
40 : 1;
41 : 1;
42 : 3;
43 : 3;
44 : 0;
45 : 3;
46 : 3;
47 : 2;
48 : 0;
49 : 1;
4a : 2;
4b : 3;
4c : 1;
4d : 3;
4e : 1;
4f : 2;
50 : 2;
51 : 2;
52 : 1;
53 : 3;
54 : 3;
55 : 0;
56 : 2;
57 : 1;
58 : 0;
59 : 1;
5a : 2;
5b : 3;
5c : 0;
5d : 2;
5e : 2;
5f : 3;
60 : 1;
61 : 3;
62 : 1;
63 : 3;
64 : 1;
65 : 0;
66 : 2;
67 : 3;
68 : 3;
69 : 0;
6a : 3;
6b : 1;
6c : 1;
6d : 3;
6e : 2;
6f : 2;
70 : 3;
71 : 3;
72 : 1;
73 : 3;
74 : 2;
75 : 0;
76 : 1;
77 : 3;
78 : 3;
79 : 2;
7a : 0;
7b : 3;
7c : 2;
7d : 1;
7e : 1;
7f : 0;
80 : 2;
81 : 2;
82 : 1;
83 : 2;
84 : 0;
85 : 3;
86 : 0;
87 : 3;
88 : 0;
89 : 3;
8a : 0;
8b : 0;
8c : 3;
8d : 1;
8e : 2;
8f : 2;
90 : 2;
91 : 0;
92 : 0;
93 : 1;
94 : 1;
95 : 3;
96 : 3;
97 : 3;
98 : 1;
99 : 3;
9a : 0;
9b : 3;
9c : 3;
9d : 3;
9e : 1;
9f : 0;
a0 : 0;
a1 : 3;
a2 : 2;
a3 : 0;
a4 : 3;
a5 : 1;
a6 : 1;
a7 : 1;
a8 : 2;
a9 : 1;
aa : 0;
ab : 3;
ac : 1;
ad : 0;
ae : 3;
af : 2;
b0 : 3;
b1 : 3;
b2 : 0;
b3 : 3;
b4 : 0;
b5 : 3;
b6 : 2;
b7 : 3;
b8 : 2;
b9 : 1;
ba : 0;
bb : 0;
bc : 0;
bd : 0;
be : 1;
bf : 2;
c0 : 0;
c1 : 1;
c2 : 3;
c3 : 3;
c4 : 3;
c5 : 2;
c6 : 1;
c7 : 1;
c8 : 2;
c9 : 1;
ca : 1;
cb : 2;
cc : 2;
cd : 1;
ce : 1;
cf : 1;
d0 : 2;
d1 : 2;
d2 : 1;
d3 : 2;
d4 : 3;
d5 : 1;
d6 : 1;
d7 : 0;
d8 : 0;
d9 : 1;
da : 2;
db : 2;
dc : 2;
dd : 3;
de : 3;
df : 3;
e0 : 0;
e1 : 0;
e2 : 3;
e3 : 2;
e4 : 0;
e5 : 2;
e6 : 3;
e7 : 0;
e8 : 1;
e9 : 0;
ea : 0;
eb : 0;
ec : 1;
ed : 0;
ee : 3;
ef : 0;
f0 : 2;
f1 : 1;
f2 : 0;
f3 : 2;
f4 : 2;
f5 : 2;
f6 : 1;
f7 : 3;
f8 : 3;
f9 : 2;
fa : 1;
fb : 0;
fc : 2;
fd : 0;
fe : 1;
ff : 1;

END;
